Spotify Predictive Analysis
…
Cluster 5: Lowest instrumentalness, High energy, Highest liveness

Song Recommendations

We can try to recommend songs based of clusters we have formed. However, PCA can bring a lot of improvement in distinguishing different clusters going forward.

For example, if user wants to listen to top 10 songs in Cluster 4 released in 2019, we can recommend following list of songs:

tracks_artists %>% 
  filter(cluster == 4, release_year == 2019) %>% 
  arrange(desc(track_popularity)) %>%
top_n(20)

## # A tibble: 1,439 x 25
##    track_id track_name track_popularity release_year danceability energy key  
##    <chr>    <chr>                 <dbl>        <dbl>        <dbl>  <dbl> <fct>
##  1 6UelLqG~ Watermelo~               94         2019        0.548  0.816 0    
##  2 3H7ihDc~ Breaking ~               92         2019        0.789  0.72  8    
##  3 7B3z0yS~ Sofia                    90         2019        0.744  0.619 0    
##  4 2Fxmhks~ bad guy                  89         2019        0.701  0.425 7    
##  5 7k4t7uL~ Tusa                     88         2019        0.803  0.715 2    
##  6 3jjujdW~ Adore You                88         2019        0.676  0.771 8    
##  7 2tnVG71~ Ride It                  87         2019        0.88   0.751 7    
##  8 2wrJq5X~ 10,000 Ho~               86         2019        0.654  0.63  10   
##  9 3Dv1eDb~ Say So                   86         2019        0.787  0.673 11   
## 10 57RA3JG~ Are You B~               86         2019        0.682  0.683 8    
## # ... with 1,429 more rows, and 18 more variables: loudness <dbl>, mode <fct>,
## #   speechiness <dbl>, acousticness <dbl>, instrumentalness <dbl>,
## #   liveness <dbl>, valence <dbl>, tempo <dbl>, time_signature <dbl>,
## #   duration_s <Duration>, artist_id <chr>, artist_name <chr>,
## #   artist_popularity <dbl>, total_followers <dbl>, artist_genre <fct>,
## #   duration_min <Duration>, popularity_group <int>, cluster <int>
…
